{
	"editor": {
		"allAngles": false,
		"entityTextureMode": false
	},
	"textureWidth": 16,
	"textureHeight": 16,
	"textureSizes": {},
	"textures": {
		"handle": "game:item/tool/material/handle"
	},
	"elements": [
		{
			"name": "main",
			"from": [
				3.0,
				0.0,
				7.0
			],
			"to": [
				13.0,
				3.0,
				10.0
			],
			"rotationOrigin": [
				3.0,
				0.0,
				7.0
			],
			"faces": {
				"north": {
					"texture": "#handle",
					"uv": [
						0.0,
						13.0,
						10.0,
						16.0
					]
				},
				"east": {
					"texture": "#handle",
					"uv": [
						10.0,
						0.0,
						13.0,
						3.0
					]
				},
				"south": {
					"texture": "#handle",
					"uv": [
						0.0,
						10.5,
						10.0,
						13.5
					]
				},
				"west": {
					"texture": "#handle",
					"uv": [
						10.0,
						3.0,
						13.0,
						6.0
					]
				},
				"up": {
					"texture": "#handle",
					"uv": [
						0.0,
						0.0,
						10.0,
						3.0
					],
					"rotation": 180
				},
				"down": {
					"texture": "#handle",
					"uv": [
						0.0,
						7.5,
						10.0,
						10.5
					]
				}
			},
			"children": [
				{
					"name": "handleL",
					"from": [
						-3.0,
						1.0,
						1.0
					],
					"to": [
						0.0,
						2.0,
						2.0
					],
					"rotationOrigin": [
						-3.0,
						1.0,
						1.0
					],
					"faces": {
						"north": {
							"texture": "#handle",
							"uv": [
								0.0,
								0.0,
								3.0,
								1.0
							]
						},
						"east": {
							"texture": "#handle",
							"uv": [
								0.0,
								0.0,
								1.0,
								1.0
							]
						},
						"south": {
							"texture": "#handle",
							"uv": [
								0.0,
								0.0,
								3.0,
								1.0
							]
						},
						"west": {
							"texture": "#handle",
							"uv": [
								0.0,
								0.0,
								1.0,
								1.0
							]
						},
						"up": {
							"texture": "#handle",
							"uv": [
								0.0,
								0.0,
								3.0,
								1.0
							]
						},
						"down": {
							"texture": "#handle",
							"uv": [
								0.0,
								0.0,
								3.0,
								1.0
							]
						}
					}
				},
				{
					"name": "handleR",
					"from": [
						10.0,
						1.0,
						1.0
					],
					"to": [
						13.0,
						2.0,
						2.0
					],
					"rotationOrigin": [
						10.0,
						1.0,
						1.0
					],
					"faces": {
						"north": {
							"texture": "#handle",
							"uv": [
								4.5,
								2.0,
								7.5,
								3.0
							]
						},
						"east": {
							"texture": "#handle",
							"uv": [
								5.5,
								1.0,
								6.5,
								2.0
							]
						},
						"south": {
							"texture": "#handle",
							"uv": [
								7.0,
								7.5,
								10.0,
								8.5
							]
						},
						"west": {
							"texture": "#handle",
							"uv": [
								4.5,
								2.0,
								5.5,
								3.0
							]
						},
						"up": {
							"texture": "#handle",
							"uv": [
								4.0,
								5.5,
								7.0,
								6.5
							]
						},
						"down": {
							"texture": "#handle",
							"uv": [
								4.0,
								3.0,
								7.0,
								4.0
							]
						}
					}
				}
			]
		}
	]
}