{
	"editor": {
		"allAngles": false,
		"entityTextureMode": false
	},
	"textureWidth": 16,
	"textureHeight": 16,
	"textureSizes": {
	},
	"textures": {
		"oak1": "block/wood/planks/oak1",
		"generic": "block/wood/planks/generic"
	},
	"elements": [
		{
			"name": "Cube5",
			"from": [ 0.0, 14.0, 6.0 ], 
			"to": [ 16.0, 16.0, 10.0 ], 
			"rotationOrigin": [ 0.0, 14.0, 6.0 ],
			"faces": {
				"north": { "texture": "#oak1", "uv": [ 0.0, 0.5, 16.0, 2.5 ] },
				"east": { "texture": "#oak1", "uv": [ 0.0, 1.0, 4.0, 3.0 ] },
				"south": { "texture": "#oak1", "uv": [ 0.0, 0.5, 16.0, 2.5 ] },
				"west": { "texture": "#oak1", "uv": [ 4.0, 0.5, 8.0, 2.5 ] },
				"up": { "texture": "#oak1", "uv": [ 0.0, 7.0, 16.0, 11.0 ] },
				"down": { "texture": "#oak1", "uv": [ 0.0, 6.5, 16.0, 10.5 ] }
			}
		},
		{
			"name": "Cube2",
			"from": [ 2.0, 10.0, 0.0 ], 
			"to": [ 4.0, 14.0, 16.0 ], 
			"rotationOrigin": [ 2.0, 10.0, 0.0 ],
			"faces": {
				"north": { "texture": "#generic", "uv": [ 0.0, 0.0, 2.0, 4.0 ] },
				"east": { "texture": "#generic", "uv": [ 0.0, 0.0, 16.0, 4.0 ] },
				"south": { "texture": "#generic", "uv": [ 0.0, 0.0, 2.0, 4.0 ] },
				"west": { "texture": "#generic", "uv": [ 0.0, 0.0, 16.0, 4.0 ] },
				"up": { "texture": "#generic", "uv": [ 0.0, 0.0, 2.0, 16.0 ] },
				"down": { "texture": "#generic", "uv": [ 0.0, 0.0, 2.0, 16.0 ] }
			}
		},
		{
			"name": "Cube3",
			"from": [ 12.0, 10.0, 0.0 ], 
			"to": [ 14.0, 14.0, 16.0 ], 
			"rotationOrigin": [ 12.0, 10.0, 0.0 ],
			"faces": {
				"north": { "texture": "#generic", "uv": [ 0.0, 0.0, 2.0, 4.0 ] },
				"east": { "texture": "#generic", "uv": [ 0.0, 0.0, 16.0, 4.0 ] },
				"south": { "texture": "#generic", "uv": [ 0.0, 0.0, 2.0, 4.0 ] },
				"west": { "texture": "#generic", "uv": [ 0.0, 0.0, 16.0, 4.0 ] },
				"up": { "texture": "#generic", "uv": [ 0.0, 0.0, 2.0, 16.0 ] },
				"down": { "texture": "#generic", "uv": [ 0.0, 0.0, 2.0, 16.0 ] }
			}
		},
		{
			"name": "Cube4",
			"from": [ 0.0, 14.0, 0.0 ], 
			"to": [ 16.0, 16.0, 5.0 ], 
			"rotationOrigin": [ 0.0, 14.0, 0.0 ],
			"faces": {
				"north": { "texture": "#oak1", "uv": [ 0.0, 0.5, 16.0, 2.5 ] },
				"east": { "texture": "#oak1", "uv": [ 0.0, 0.5, 5.0, 2.5 ], "rotation": 180 },
				"south": { "texture": "#oak1", "uv": [ 0.0, 0.5, 16.0, 2.5 ] },
				"west": { "texture": "#oak1", "uv": [ 0.0, 1.0, 5.0, 3.0 ] },
				"up": { "texture": "#oak1", "uv": [ 0.0, 0.5, 16.0, 5.5 ] },
				"down": { "texture": "#oak1", "uv": [ 0.0, 0.0, 16.0, 5.0 ] }
			}
		},
		{
			"name": "Cube6",
			"from": [ 0.0, 14.0, 11.0 ], 
			"to": [ 16.0, 16.0, 15.0 ], 
			"rotationOrigin": [ 0.0, 14.0, 11.0 ],
			"faces": {
				"north": { "texture": "#oak1", "uv": [ 0.0, 0.5, 16.0, 2.5 ] },
				"east": { "texture": "#oak1", "uv": [ 4.5, 1.0, 8.5, 3.0 ] },
				"south": { "texture": "#oak1", "uv": [ 0.0, 0.5, 16.0, 2.5 ] },
				"west": { "texture": "#oak1", "uv": [ 0.5, 3.0, 4.5, 5.0 ] },
				"up": { "texture": "#oak1", "uv": [ 0.0, 11.5, 16.0, 15.5 ] },
				"down": { "texture": "#oak1", "uv": [ 0.0, 11.5, 16.0, 15.5 ] }
			}
		}
	]}